hw3_2/dump.vcd
$date
	Thu Feb 14 13:36:58 2019
$end
$version
	ModelSim Version 10.4a
$end
$timescale
	1ns
$end

$scope module fullAdder_tb $end
$var reg 1 ! A $end
$var reg 1 " B $end
$var reg 1 # C_in $end
$var wire 1 $ S $end
$var wire 1 % C_out $end
$var wire 1 & Clk $end
$var wire 1 ' rst $end
$var wire 1 ( err $end

$scope module my_clkrst $end
$var reg 1 ) clk $end
$var reg 1 * rst $end
$var wire 1 ( err $end
$var integer 32 + cycle_count $end
$upscope $end

$scope module DUT $end
$var wire 1 , A $end
$var wire 1 - B $end
$var wire 1 . C_in $end
$var wire 1 $ S $end
$var wire 1 % C_out $end
$var wire 1 / cout_n $end
$var wire 1 0 and_ab $end
$var wire 1 1 nand_ab $end
$var wire 1 2 and_ac $end
$var wire 1 3 nand_ac $end
$var wire 1 4 and_bc $end
$var wire 1 5 nand_bc $end
$var wire 1 6 nor_abc $end
$var wire 1 7 or_abc $end

$scope module xorabc $end
$var wire 1 , in1 $end
$var wire 1 - in2 $end
$var wire 1 . in3 $end
$var wire 1 $ out $end
$upscope $end

$scope module nand1 $end
$var wire 1 , in1 $end
$var wire 1 - in2 $end
$var wire 1 1 out $end
$upscope $end

$scope module not1 $end
$var wire 1 1 in1 $end
$var wire 1 0 out $end
$upscope $end

$scope module nand2 $end
$var wire 1 , in1 $end
$var wire 1 . in2 $end
$var wire 1 3 out $end
$upscope $end

$scope module not2 $end
$var wire 1 3 in1 $end
$var wire 1 2 out $end
$upscope $end

$scope module nand3 $end
$var wire 1 - in1 $end
$var wire 1 . in2 $end
$var wire 1 5 out $end
$upscope $end

$scope module not3 $end
$var wire 1 5 in1 $end
$var wire 1 4 out $end
$upscope $end

$scope module norandabc $end
$var wire 1 0 in1 $end
$var wire 1 2 in2 $end
$var wire 1 4 in3 $end
$var wire 1 6 out $end
$upscope $end

$scope module cout $end
$var wire 1 6 in1 $end
$var wire 1 % out $end
$upscope $end
$upscope $end
$upscope $end
$enddefinitions $end
#0
$dumpvars
0!
0"
0#
1)
1*
b1 +
0$
0%
1&
1'
z(
z/
00
11
02
13
04
15
16
z7
0.
0-
0,
$end
#10
1#
1.
1$
#20
1"
0#
1-
0.
#30
1#
1.
05
0$
14
06
1%
#40
1!
0"
0#
1,
0-
0.
1$
15
04
16
0%
#50
0)
1#
1.
03
0$
12
06
1%
0&
#60
1"
0#
1-
0.
01
13
10
02
#70
1#
1.
05
03
1$
14
12
